ID               Name                  Position       Project   Base
1   Protasov Oleg Timurovich           Programmer       UP      320
2   Brodovich Viktor Sergeevich        Senior_Manager   NOP     0
3   Garbuz Innokentiy Andreevich       Driver           UP      150
4   Poluektov Mihail Kirillovich       Tester           UP      200
5   Baratov Stanislav Filippovich      Programmer       DOW     320
6   Gorohov Nikolay Andreevich         Programmer       DOW     320
7   Grekov Nikita Vitalevich           Tester           DOW     200
8   Leskov Oleg Olegovich              Team_Leader      UP      500
9   Voronecz Maksim Vadimovich         Programmer       DOW     320
10  Shevczov Yuriy Rostislavovich      Manager          UP      0
11  Mikulaev Yaroslav Yurevich         Tester           DOW     200
12  Kirilenko Aleksandr Artyomovich    Manager          UP      0
13  Golovko Denis Denisovich           Programmer       UP      320
14  Bashkiryov Svyatoslav Valerevich   Programmer       DOW     320
15  Musorgskiy Grigoriy Semyonovich    Project_Manager  UP      0
16  Verhovskiy Nikolay Valerevich      Programmer       DOW     320
17  Yakushko Igor Egorovich            Cleaner          NOP     100
18  Varzhenevskiy Vitaliy Nikolaevich  Programmer       DOW     250
19  Lashkaryov Daniil Daniilovich      Manager          DOW     0
20  Ulyanin Yakov Danilovich           Programmer       DOW     320
21  Biryukov Kirill Vyacheslavovich    Project_Manager  DOW     0
22  Perhurov Leonid Artyomovich        Programmer       UP      320
23  Meyer Stanislav Eduardovich        Programmer       UP      320
24  Bozhich Aleksey Vadimovich         Tester           DOW     200
25  Novakovskiy Oleg Georgievich       Driver           UP      150
26  Gruzinskiy Vyacheslav Vasilevich   Manager          UP      0
27  Kashinczov Stanislav Igorevich     Programmer       UP      320
28  Zhedrinskiy Bogdan Vadimovich      Programmer       DOW     320
29  Zaharchuk Yakov Eduardovich        Programmer       UP      320
30  Bolotnikov Boris Artyomovich       Team_Leader      DOW     500
31  Voznov Grigoriy Vyacheslavovich    Manager          DOW     0
32  Slepczov Timofey Lvovich           Programmer       UP      320
33  Golenkina Anna Vasilevna           Driver           DOW     150
34  Panteleeva Irina Grigorevna        Programmer       DOW     250
35  Chulkova Lyudmila Antonovna        Manager          DOW     0
36  Kaysarova Olga Nikitichna          Programmer       UP      250
37  Burmaksina Zinaida Semyonovna      Programmer       UP      250
38  Shimanskaya Tatyana Vasilevna      Driver           DOW     150
39  Czvirko Margarita Dmitrievna       Tester           UP      100
40  Voloczkaya Valeriya Valerievna     Manager          DOW     0
41  Vadovskaya Angelina Filippovna     Manager          UP      0
42  Eremeeva Nadezhda Maksimovna       Cleaner          NOP     100
43  Bobrova Liliya Nikolaevna          Senior_Manager   NOP     0
44  Karacharova Evgeniya Fyodorovna    Tester           UP      200