1	Ivanov I. I.		Driver		200	200
2	Petrova G. I.		Cleaner		175	170
3	Sergeev S. V.		Programmer	58	300		App-078-x-02	10
4	Botkin D. S.		Programmer	109	310		App-078-x-02	10
5	Demidov A. D.		Tester		98	310		App-078-x-02	10
6	Artemov N. V.		TeamLeader	100	330	3	App-078-x-02	15
7	Losev D. T.		Manager		0			App-078-x-02	20
8	Nikitin A. A.		ProjectManager	0		5	App-078-x-02	25
9	Gorelov I. L.		Programmer	78	315		Sftwr-1pq	10
10	Novikov Y. Y.		Programmer	95	320		Sftwr-1pq	10
11	Morozov V. I.		Tester		88	315		Sftwr-1pq	10
12	Kirillov A. V.		TeamLeader	100	330	3	Sftwr-1pq	15
13	Mokeev S. P.		Manager		0			Sftwr-01pq	20
14	Pavlov A. D.		ProjectManager	0		5	Sftwr-01pq	25
15	Nosov V. I.		Cleaner		72	175
16	Tolmachev I. P.		Programmer	121	320		VrtRlt-25zero1	10
17	Zhegalkin V. Y.		Programmer	102	315		VrtRlt-25zero1	10
18	Nikolaev E. N.		Tester		72	325		VrtRlt-25zero1	10
19	Domrachev S. V.		TeamLeader	101	330	3	VrtRlt-25zero1	15
20	Pontryagin K. D.	Manager		0			VrtRlt-25zero1	20
21	Semenov V. D.		ProjectManager	0		5	VrtRlt-25zero1	25
22	Chapaev V. A.		Programmer	91	340		?dx_1		10
23	Rylkov R. R.		Programmer	106	325		?dx_1		10
24	Stepanov S. R.		Tester		108	330		?dx_1		10
25	Vdovin A. G.		TeamLeader	64	345	3	?dx_1		15
26	Bolshakov D. D.		Manager		0			?dx_1		20
27	Studin V. D.		ProjectManager	0		5	?dx_1		25
28	Fedorov D. F.		Driver		109	250
29	Volontarev I. I.	Driver		96	265
30	Vadimov S. R.		Programmer	76	300		qq_02		20
31	Golikov D. T.		Tester		91	330		qq_02		20
32	Astorbaev T. T.		TeamLeader	72	350	2	qq_02		20
33	Valerianov G. R.	Manager		0			qq_02		10
34	Stasov N. M.		ProjectManager	0		4	qq_02		20
35	Molostov T. R.		Programmer	120	700		-xxp-		15
36	Romanov D. T.		Tester		111	650		-xxp-		9
37	Antohin L. G.		TeamLeader	94	750	2	-xxp-		20
38	Gorshkov V. P.		Manager		0			-xxp-		20
39	Loshkarev N. M.		ProjectManager	0		4	-xxp-		30
40	Likholat M. I.		SeniorManager	0		5	-----		10